FranckHertz/Osciloscopio/2/CH1.CSV

,,,t,v
Record Length,2500,,-0.05,0
Sample Interval,0.00004,,-0.04996,0
Trigger Point,1250,,-0.04992,0
,,,-0.04988,0
,,,-0.04984,0
,,,-0.0498,0
Source,CH1,,-0.04976,0
Vertical Units,V,,-0.04972,0
Vertical Scale,5,,-0.04968,0.2
Vertical Offset,10,,-0.04964,0
Horizontal Units,s,,-0.0496,0
Horizontal Scale,0.01,,-0.04956,0
Pt Fmt,Y,,-0.04952,0
Yzero,0,,-0.04948,0
Probe Atten,1,,-0.04944,0
Model Number,TBS1102,,-0.0494,0
Serial Number,C012400,,-0.04936,0
Firmware Version,FV:v26.01,,-0.04932,0
,,,-0.04928,0
,,,-0.04924,0
,,,-0.0492,0
,,,-0.04916,0
,,,-0.04912,0
,,,-0.04908,0
,,,-0.04904,0
,,,-0.049,0
,,,-0.04896,0
,,,-0.04892,0
,,,-0.04888,0
,,,-0.04884,0
,,,-0.0488,0
,,,-0.04876,0
,,,-0.04872,0
,,,-0.04868,0
,,,-0.04864,0
,,,-0.0486,0
,,,-0.04856,0
,,,-0.04852,0
,,,-0.04848,0
,,,-0.04844,0.2
,,,-0.0484,0
,,,-0.04836,0
,,,-0.04832,0
,,,-0.04828,0
,,,-0.04824,0
,,,-0.0482,0
,,,-0.04816,0
,,,-0.04812,0
,,,-0.04808,0
,,,-0.04804,0
,,,-0.048,0
,,,-0.04796,0
,,,-0.04792,0
,,,-0.04788,0
,,,-0.04784,0
,,,-0.0478,0
,,,-0.04776,0
,,,-0.04772,0
,,,-0.04768,0
,,,-0.04764,0
,,,-0.0476,0
,,,-0.04756,0
,,,-0.04752,0
,,,-0.04748,0
,,,-0.04744,0
,,,-0.0474,0
,,,-0.04736,0
,,,-0.04732,0
,,,-0.04728,0
,,,-0.04724,0
,,,-0.0472,0
,,,-0.04716,0
,,,-0.04712,0
,,,-0.04708,0
,,,-0.04704,0
,,,-0.047,0
,,,-0.04696,0
,,,-0.04692,0
,,,-0.04688,0.2
,,,-0.04684,0
,,,-0.0468,0
,,,-0.04676,0
,,,-0.04672,0
,,,-0.04668,0
,,,-0.04664,0
,,,-0.0466,0
,,,-0.04656,0
,,,-0.04652,0
,,,-0.04648,0
,,,-0.04644,0
,,,-0.0464,0
,,,-0.04636,0.2
,,,-0.04632,0
,,,-0.04628,0
,,,-0.04624,0
,,,-0.0462,0
,,,-0.04616,0
,,,-0.04612,0
,,,-0.04608,0
,,,-0.04604,0
,,,-0.046,0
,,,-0.04596,0
,,,-0.04592,0
,,,-0.04588,0
,,,-0.04584,0
,,,-0.0458,0
,,,-0.04576,0
,,,-0.04572,0
,,,-0.04568,0
,,,-0.04564,0
,,,-0.0456,0
,,,-0.04556,0
,,,-0.04552,0
,,,-0.04548,0
,,,-0.04544,0
,,,-0.0454,0
,,,-0.04536,0
,,,-0.04532,0
,,,-0.04528,0
,,,-0.04524,0
,,,-0.0452,0
,,,-0.04516,0
,,,-0.04512,0
,,,-0.04508,0
,,,-0.04504,0
,,,-0.045,0
,,,-0.04496,0
,,,-0.04492,0
,,,-0.04488,0
,,,-0.04484,0
,,,-0.0448,0
,,,-0.04476,0
,,,-0.04472,0
,,,-0.04468,0
,,,-0.04464,0
,,,-0.0446,0
,,,-0.04456,0
,,,-0.04452,0
,,,-0.04448,0
,,,-0.04444,0
,,,-0.0444,0
,,,-0.04436,0
,,,-0.04432,0
,,,-0.04428,0
,,,-0.04424,0
,,,-0.0442,0.2
,,,-0.04416,0
,,,-0.04412,0
,,,-0.04408,0
,,,-0.04404,0
,,,-0.044,0
,,,-0.04396,0
,,,-0.04392,0
,,,-0.04388,0
,,,-0.04384,0
,,,-0.0438,0.2
,,,-0.04376,0
,,,-0.04372,0
,,,-0.04368,0
,,,-0.04364,0.2
,,,-0.0436,0
,,,-0.04356,0
,,,-0.04352,0.2
,,,-0.04348,0
,,,-0.04344,0
,,,-0.0434,0
,,,-0.04336,0
,,,-0.04332,0
,,,-0.04328,0
,,,-0.04324,0
,,,-0.0432,0
,,,-0.04316,0
,,,-0.04312,0
,,,-0.04308,0
,,,-0.04304,0
,,,-0.043,0
,,,-0.04296,0
,,,-0.04292,0
,,,-0.04288,0
,,,-0.04284,0
,,,-0.0428,0
,,,-0.04276,0
,,,-0.04272,0
,,,-0.04268,0
,,,-0.04264,0
,,,-0.0426,0
,,,-0.04256,0
,,,-0.04252,0
,,,-0.04248,0
,,,-0.04244,0
,,,-0.0424,0
,,,-0.04236,0
,,,-0.04232,0
,,,-0.04228,0
,,,-0.04224,0
,,,-0.0422,0
,,,-0.04216,0
,,,-0.04212,0
,,,-0.04208,0
,,,-0.04204,0
,,,-0.042,0
,,,-0.04196,0
,,,-0.04192,0
,,,-0.04188,0
,,,-0.04184,0
,,,-0.0418,0
,,,-0.04176,0
,,,-0.04172,0
,,,-0.04168,0
,,,-0.04164,0
,,,-0.0416,0
,,,-0.04156,0
,,,-0.04152,0
,,,-0.04148,0
,,,-0.04144,0
,,,-0.0414,0
,,,-0.04136,0
,,,-0.04132,0
,,,-0.04128,0
,,,-0.04124,0
,,,-0.0412,0
,,,-0.04116,0
,,,-0.04112,0.2
,,,-0.04108,0
,,,-0.04104,0
,,,-0.041,0
,,,-0.04096,0
,,,-0.04092,0
,,,-0.04088,0.2
,,,-0.04084,0
,,,-0.0408,0
,,,-0.04076,0
,,,-0.04072,0
,,,-0.04068,0
,,,-0.04064,0
,,,-0.0406,0
,,,-0.04056,0
,,,-0.04052,0
,,,-0.04048,0
,,,-0.04044,0
,,,-0.0404,0
,,,-0.04036,0
,,,-0.04032,0
,,,-0.04028,0
,,,-0.04024,0
,,,-0.0402,0
,,,-0.04016,0
,,,-0.04012,0
,,,-0.04008,0
,,,-0.04004,0
,,,-0.04,0
,,,-0.03996,0.2
,,,-0.03992,0
,,,-0.03988,0
,,,-0.03984,0
,,,-0.0398,0.2
,,,-0.03976,0
,,,-0.03972,0
,,,-0.03968,0
,,,-0.03964,0
,,,-0.0396,0
,,,-0.03956,0
,,,-0.03952,0
,,,-0.03948,0
,,,-0.03944,0
,,,-0.0394,0
,,,-0.03936,0.2
,,,-0.03932,0
,,,-0.03928,0.2
,,,-0.03924,0
,,,-0.0392,0
,,,-0.03916,0
,,,-0.03912,0
,,,-0.03908,0
,,,-0.03904,0
,,,-0.039,0
,,,-0.03896,0
,,,-0.03892,0
,,,-0.03888,0
,,,-0.03884,0
,,,-0.0388,0
,,,-0.03876,0
,,,-0.03872,0
,,,-0.03868,0
,,,-0.03864,0
,,,-0.0386,0
,,,-0.03856,0
,,,-0.03852,0
,,,-0.03848,0
,,,-0.03844,0
,,,-0.0384,0
,,,-0.03836,0
,,,-0.03832,0
,,,-0.03828,0.2
,,,-0.03824,0
,,,-0.0382,0
,,,-0.03816,0
,,,-0.03812,0
,,,-0.03808,0
,,,-0.03804,0
,,,-0.038,0
,,,-0.03796,0
,,,-0.03792,0
,,,-0.03788,0
,,,-0.03784,0
,,,-0.0378,0
,,,-0.03776,0
,,,-0.03772,0
,,,-0.03768,0
,,,-0.03764,0
,,,-0.0376,0
,,,-0.03756,0
,,,-0.03752,0
,,,-0.03748,0
,,,-0.03744,0
,,,-0.0374,0
,,,-0.03736,0
,,,-0.03732,0
,,,-0.03728,0
,,,-0.03724,0
,,,-0.0372,0
,,,-0.03716,0.2
,,,-0.03712,0
,,,-0.03708,0
,,,-0.03704,0
,,,-0.037,0
,,,-0.03696,0
,,,-0.03692,0
,,,-0.03688,0
,,,-0.03684,0
,,,-0.0368,0
,,,-0.03676,0
,,,-0.03672,0
,,,-0.03668,0
,,,-0.03664,0
,,,-0.0366,0
,,,-0.03656,0
,,,-0.03652,0
,,,-0.03648,0
,,,-0.03644,0
,,,-0.0364,0.2
,,,-0.03636,0
,,,-0.03632,0.2
,,,-0.03628,0
,,,-0.03624,0
,,,-0.0362,0
,,,-0.03616,0.2
,,,-0.03612,0
,,,-0.03608,0
,,,-0.03604,0
,,,-0.036,0
,,,-0.03596,0
,,,-0.03592,0
,,,-0.03588,0
,,,-0.03584,0
,,,-0.0358,0
,,,-0.03576,0
,,,-0.03572,0
,,,-0.03568,0.2
,,,-0.03564,0
,,,-0.0356,0
,,,-0.03556,0
,,,-0.03552,0
,,,-0.03548,0
,,,-0.03544,0.2
,,,-0.0354,0
,,,-0.03536,0
,,,-0.03532,0
,,,-0.03528,0
,,,-0.03524,0
,,,-0.0352,0
,,,-0.03516,0
,,,-0.03512,0
,,,-0.03508,0
,,,-0.03504,0
,,,-0.035,0
,,,-0.03496,0
,,,-0.03492,0
,,,-0.03488,0
,,,-0.03484,0
,,,-0.0348,0
,,,-0.03476,0
,,,-0.03472,0.2
,,,-0.03468,0
,,,-0.03464,0
,,,-0.0346,0
,,,-0.03456,0
,,,-0.03452,0
,,,-0.03448,0
,,,-0.03444,0
,,,-0.0344,0
,,,-0.03436,0
,,,-0.03432,0
,,,-0.03428,0
,,,-0.03424,0
,,,-0.0342,0
,,,-0.03416,0
,,,-0.03412,0
,,,-0.03408,0
,,,-0.03404,0
,,,-0.034,0
,,,-0.03396,0
,,,-0.03392,0
,,,-0.03388,0
,,,-0.03384,0
,,,-0.0338,0
,,,-0.03376,0
,,,-0.03372,0
,,,-0.03368,0
,,,-0.03364,0
,,,-0.0336,0
,,,-0.03356,0
,,,-0.03352,0
,,,-0.03348,0
,,,-0.03344,0
,,,-0.0334,0
,,,-0.03336,0
,,,-0.03332,0
,,,-0.03328,0
,,,-0.03324,0
,,,-0.0332,0
,,,-0.03316,0
,,,-0.03312,0
,,,-0.03308,0
,,,-0.03304,0
,,,-0.033,0
,,,-0.03296,0
,,,-0.03292,0
,,,-0.03288,0
,,,-0.03284,0
,,,-0.0328,0.2
,,,-0.03276,0
,,,-0.03272,0
,,,-0.03268,0
,,,-0.03264,0
,,,-0.0326,0
,,,-0.03256,0
,,,-0.03252,0
,,,-0.03248,0
,,,-0.03244,0
,,,-0.0324,0
,,,-0.03236,0
,,,-0.03232,0
,,,-0.03228,0
,,,-0.03224,0
,,,-0.0322,0
,,,-0.03216,0
,,,-0.03212,0
,,,-0.03208,0
,,,-0.03204,0
,,,-0.032,0
,,,-0.03196,0
,,,-0.03192,0
,,,-0.03188,0
,,,-0.03184,0
,,,-0.0318,0
,,,-0.03176,0
,,,-0.03172,0
,,,-0.03168,0
,,,-0.03164,0
,,,-0.0316,0
,,,-0.03156,0
,,,-0.03152,0
,,,-0.03148,0
,,,-0.03144,0
,,,-0.0314,0.2
,,,-0.03136,0
,,,-0.03132,0
,,,-0.03128,0
,,,-0.03124,0
,,,-0.0312,0
,,,-0.03116,0
,,,-0.03112,0
,,,-0.03108,0
,,,-0.03104,0.2
,,,-0.031,0
,,,-0.03096,0
,,,-0.03092,0
,,,-0.03088,0
,,,-0.03084,0
,,,-0.0308,0
,,,-0.03076,0.2
,,,-0.03072,0.2
,,,-0.03068,0.2
,,,-0.03064,0
,,,-0.0306,0
,,,-0.03056,0
,,,-0.03052,0.2
,,,-0.03048,0
,,,-0.03044,0.2
,,,-0.0304,0.2
,,,-0.03036,0.2
,,,-0.03032,0.2
,,,-0.03028,0.2
,,,-0.03024,0.2
,,,-0.0302,0.2
,,,-0.03016,0.2
,,,-0.03012,0.2
,,,-0.03008,0.2
,,,-0.03004,0.2
,,,-0.03,0.2
,,,-0.02996,0.2
,,,-0.02992,0.2
,,,-0.02988,0.2
,,,-0.02984,0.2
,,,-0.0298,0.2
,,,-0.02976,0.2
,,,-0.02972,0.4
,,,-0.02968,0.4
,,,-0.02964,0.2
,,,-0.0296,0.2
,,,-0.02956,0.4
,,,-0.02952,0.4
,,,-0.02948,0.2
,,,-0.02944,0.2
,,,-0.0294,0.2
,,,-0.02936,0.2
,,,-0.02932,0.2
,,,-0.02928,0.2
,,,-0.02924,0.4
,,,-0.0292,0.4
,,,-0.02916,0.4
,,,-0.02912,0.4
,,,-0.02908,0.4
,,,-0.02904,0.4
,,,-0.029,0.4
,,,-0.02896,0.4
,,,-0.02892,0.4
,,,-0.02888,0.4
,,,-0.02884,0.4
,,,-0.0288,0.4
,,,-0.02876,0.4
,,,-0.02872,0.4
,,,-0.02868,0.4
,,,-0.02864,0.4
,,,-0.0286,0.4
,,,-0.02856,0.4
,,,-0.02852,0.4
,,,-0.02848,0.4
,,,-0.02844,0.4
,,,-0.0284,0.4
,,,-0.02836,0.4
,,,-0.02832,0.4
,,,-0.02828,0.6
,,,-0.02824,0.4
,,,-0.0282,0.4
,,,-0.02816,0.6
,,,-0.02812,0.4
,,,-0.02808,0.4
,,,-0.02804,0.6
,,,-0.028,0.6
,,,-0.02796,0.4
,,,-0.02792,0.6
,,,-0.02788,0.6
,,,-0.02784,0.6
,,,-0.0278,0.6
,,,-0.02776,0.6
,,,-0.02772,0.6
,,,-0.02768,0.6
,,,-0.02764,0.6
,,,-0.0276,0.6
,,,-0.02756,0.8
,,,-0.02752,0.6
,,,-0.02748,0.6
,,,-0.02744,0.6
,,,-0.0274,0.6
,,,-0.02736,0.6
,,,-0.02732,0.8
,,,-0.02728,0.8
,,,-0.02724,0.8
,,,-0.0272,0.8
,,,-0.02716,0.6
,,,-0.02712,0.8
,,,-0.02708,0.6
,,,-0.02704,0.8
,,,-0.027,0.8
,,,-0.02696,0.8
,,,-0.02692,0.8
,,,-0.02688,0.6
,,,-0.02684,0.8
,,,-0.0268,0.6
,,,-0.02676,0.8
,,,-0.02672,0.8
,,,-0.02668,0.8
,,,-0.02664,0.8
,,,-0.0266,0.8
,,,-0.02656,0.8
,,,-0.02652,0.8
,,,-0.02648,0.8
,,,-0.02644,0.8
,,,-0.0264,0.6
,,,-0.02636,0.8
,,,-0.02632,0.8
,,,-0.02628,0.8
,,,-0.02624,0.8
,,,-0.0262,0.8
,,,-0.02616,0.8
,,,-0.02612,0.8
,,,-0.02608,0.8
,,,-0.02604,0.8
,,,-0.026,0.8
,,,-0.02596,0.8
,,,-0.02592,0.8
,,,-0.02588,1
,,,-0.02584,1
,,,-0.0258,1
,,,-0.02576,0.8
,,,-0.02572,0.8
,,,-0.02568,0.8
,,,-0.02564,1
,,,-0.0256,1
,,,-0.02556,0.8
,,,-0.02552,1
,,,-0.02548,1
,,,-0.02544,1
,,,-0.0254,1
,,,-0.02536,1
,,,-0.02532,0.8
,,,-0.02528,1
,,,-0.02524,1
,,,-0.0252,0.8
,,,-0.02516,1
,,,-0.02512,1
,,,-0.02508,1
,,,-0.02504,1
,,,-0.025,1
,,,-0.02496,1
,,,-0.02492,1
,,,-0.02488,1
,,,-0.02484,1
,,,-0.0248,1
,,,-0.02476,1
,,,-0.02472,1
,,,-0.02468,1
,,,-0.02464,1
,,,-0.0246,1
,,,-0.02456,1
,,,-0.02452,1
,,,-0.02448,1
,,,-0.02444,1
,,,-0.0244,1
,,,-0.02436,1
,,,-0.02432,1.2
,,,-0.02428,1
,,,-0.02424,1.2
,,,-0.0242,1.2
,,,-0.02416,1.2
,,,-0.02412,1
,,,-0.02408,1.2
,,,-0.02404,1.2
,,,-0.024,1.2
,,,-0.02396,1.2
,,,-0.02392,1.2
,,,-0.02388,1.2
,,,-0.02384,1.2
,,,-0.0238,1.2
,,,-0.02376,1.2
,,,-0.02372,1.2
,,,-0.02368,1.2
,,,-0.02364,1.2
,,,-0.0236,1.2
,,,-0.02356,1.2
,,,-0.02352,1.4
,,,-0.02348,1.2
,,,-0.02344,1.4
,,,-0.0234,1.2
,,,-0.02336,1.4
,,,-0.02332,1.4
,,,-0.02328,1.4
,,,-0.02324,1.2
,,,-0.0232,1.4
,,,-0.02316,1.4
,,,-0.02312,1.4
,,,-0.02308,1.4
,,,-0.02304,1.4
,,,-0.023,1.4
,,,-0.02296,1.4
,,,-0.02292,1.4
,,,-0.02288,1.4
,,,-0.02284,1.4
,,,-0.0228,1.4
,,,-0.02276,1.2
,,,-0.02272,1.4
,,,-0.02268,1.4
,,,-0.02264,1.4
,,,-0.0226,1.4
,,,-0.02256,1.4
,,,-0.02252,1.4
,,,-0.02248,1.4
,,,-0.02244,1.4
,,,-0.0224,1.4
,,,-0.02236,1.4
,,,-0.02232,1.4
,,,-0.02228,1.6
,,,-0.02224,1.4
,,,-0.0222,1.4
,,,-0.02216,1.4
,,,-0.02212,1.6
,,,-0.02208,1.4
,,,-0.02204,1.4
,,,-0.022,1.6
,,,-0.02196,1.4
,,,-0.02192,1.6
,,,-0.02188,1.6
,,,-0.02184,1.6
,,,-0.0218,1.6
,,,-0.02176,1.6
,,,-0.02172,1.6
,,,-0.02168,1.6
,,,-0.02164,1.6
,,,-0.0216,1.6
,,,-0.02156,1.6
,,,-0.02152,1.6
,,,-0.02148,1.6
,,,-0.02144,1.6
,,,-0.0214,1.6
,,,-0.02136,1.6
,,,-0.02132,1.6
,,,-0.02128,1.6
,,,-0.02124,1.6
,,,-0.0212,1.6
,,,-0.02116,1.6
,,,-0.02112,1.6
,,,-0.02108,1.6
,,,-0.02104,1.8
,,,-0.021,1.6
,,,-0.02096,1.8
,,,-0.02092,1.6
,,,-0.02088,1.8
,,,-0.02084,1.6
,,,-0.0208,1.8
,,,-0.02076,1.8
,,,-0.02072,1.8
,,,-0.02068,1.6
,,,-0.02064,1.8
,,,-0.0206,1.8
,,,-0.02056,1.8
,,,-0.02052,1.8
,,,-0.02048,1.8
,,,-0.02044,1.8
,,,-0.0204,1.8
,,,-0.02036,1.8
,,,-0.02032,1.8
,,,-0.02028,1.8
,,,-0.02024,1.8
,,,-0.0202,1.8
,,,-0.02016,1.8
,,,-0.02012,1.8
,,,-0.02008,1.8
,,,-0.02004,1.8
,,,-0.02,1.8
,,,-0.01996,1.8
,,,-0.01992,2
,,,-0.01988,2
,,,-0.01984,2
,,,-0.0198,1.8
,,,-0.01976,1.8
,,,-0.01972,2
,,,-0.01968,2
,,,-0.01964,1.8
,,,-0.0196,2
,,,-0.01956,2
,,,-0.01952,2
,,,-0.01948,2
,,,-0.01944,2
,,,-0.0194,1.8
,,,-0.01936,2
,,,-0.01932,2
,,,-0.01928,2
,,,-0.01924,2
,,,-0.0192,2
,,,-0.01916,2
,,,-0.01912,2
,,,-0.01908,1.8
,,,-0.01904,2
,,,-0.019,2
,,,-0.01896,2
,,,-0.01892,2
,,,-0.01888,2
,,,-0.01884,2
,,,-0.0188,2.2
,,,-0.01876,2
,,,-0.01872,2
,,,-0.01868,2
,,,-0.01864,2
,,,-0.0186,2.2
,,,-0.01856,2
,,,-0.01852,2
,,,-0.01848,2.2
,,,-0.01844,2.2
,,,-0.0184,2.2
,,,-0.01836,2.2
,,,-0.01832,2.2
,,,-0.01828,2.2
,,,-0.01824,2.2
,,,-0.0182,2
,,,-0.01816,2
,,,-0.01812,2.2
,,,-0.01808,2.2
,,,-0.01804,2.2
,,,-0.018,2.2
,,,-0.01796,2.2
,,,-0.01792,2.2
,,,-0.01788,2.2
,,,-0.01784,2.2
,,,-0.0178,2.2
,,,-0.01776,2.2
,,,-0.01772,2.2
,,,-0.01768,2.2
,,,-0.01764,2.2
,,,-0.0176,2.2
,,,-0.01756,2.2
,,,-0.01752,2.2
,,,-0.01748,2.2
,,,-0.01744,2.2
,,,-0.0174,2.2
,,,-0.01736,2.2
,,,-0.01732,2.2
,,,-0.01728,2.2
,,,-0.01724,2.2
,,,-0.0172,2.4
,,,-0.01716,2.4
,,,-0.01712,2.4
,,,-0.01708,2.4
,,,-0.01704,2.2
,,,-0.017,2.4
,,,-0.01696,2.4
,,,-0.01692,2.4
,,,-0.01688,2.4
,,,-0.01684,2.4
,,,-0.0168,2.4
,,,-0.01676,2.4
,,,-0.01672,2.4
,,,-0.01668,2.4
,,,-0.01664,2.4
,,,-0.0166,2.4
,,,-0.01656,2.4
,,,-0.01652,2.4
,,,-0.01648,2.4
,,,-0.01644,2.4
,,,-0.0164,2.6
,,,-0.01636,2.6
,,,-0.01632,2.4
,,,-0.01628,2.6
,,,-0.01624,2.4
,,,-0.0162,2.4
,,,-0.01616,2.6
,,,-0.01612,2.4
,,,-0.01608,2.4
,,,-0.01604,2.6
,,,-0.016,2.6
,,,-0.01596,2.6
,,,-0.01592,2.6
,,,-0.01588,2.6
,,,-0.01584,2.6
,,,-0.0158,2.6
,,,-0.01576,2.6
,,,-0.01572,2.6
,,,-0.01568,2.6
,,,-0.01564,2.6
,,,-0.0156,2.6
,,,-0.01556,2.6
,,,-0.01552,2.6
,,,-0.01548,2.6
,,,-0.01544,2.6
,,,-0.0154,2.6
,,,-0.01536,2.6
,,,-0.01532,2.6
,,,-0.01528,2.6
,,,-0.01524,2.6
,,,-0.0152,2.6
,,,-0.01516,2.8
,,,-0.01512,2.8
,,,-0.01508,2.6
,,,-0.01504,2.6
,,,-0.015,2.6
,,,-0.01496,2.8
,,,-0.01492,2.8
,,,-0.01488,2.8
,,,-0.01484,2.8
,,,-0.0148,2.8
,,,-0.01476,2.8
,,,-0.01472,2.6
,,,-0.01468,2.6
,,,-0.01464,2.8
,,,-0.0146,2.8
,,,-0.01456,2.8
,,,-0.01452,2.8
,,,-0.01448,2.8
,,,-0.01444,2.8
,,,-0.0144,2.8
,,,-0.01436,2.8
,,,-0.01432,2.8
,,,-0.01428,2.8
,,,-0.01424,2.8
,,,-0.0142,2.8
,,,-0.01416,2.8
,,,-0.01412,2.8
,,,-0.01408,2.8
,,,-0.01404,2.8
,,,-0.014,3
,,,-0.01396,2.8
,,,-0.01392,2.8
,,,-0.01388,3
,,,-0.01384,2.8
,,,-0.0138,2.8
,,,-0.01376,2.8
,,,-0.01372,2.8
,,,-0.01368,2.8
,,,-0.01364,2.8
,,,-0.0136,2.8
,,,-0.01356,2.8
,,,-0.01352,3
,,,-0.01348,2.8
,,,-0.01344,3
,,,-0.0134,3
,,,-0.01336,3
,,,-0.01332,3
,,,-0.01328,3
,,,-0.01324,3
,,,-0.0132,2.8
,,,-0.01316,3
,,,-0.01312,3
,,,-0.01308,3
,,,-0.01304,3
,,,-0.013,3
,,,-0.01296,3
,,,-0.01292,3
,,,-0.01288,3
,,,-0.01284,3
,,,-0.0128,3
,,,-0.01276,3
,,,-0.01272,3
,,,-0.01268,3
,,,-0.01264,3
,,,-0.0126,3
,,,-0.01256,3
,,,-0.01252,3
,,,-0.01248,3.2
,,,-0.01244,3
,,,-0.0124,3
,,,-0.01236,3
,,,-0.01232,3
,,,-0.01228,3
,,,-0.01224,3
,,,-0.0122,3
,,,-0.01216,3
,,,-0.01212,3
,,,-0.01208,3.2
,,,-0.01204,3
,,,-0.012,3.2
,,,-0.01196,3.2
,,,-0.01192,3
,,,-0.01188,3.2
,,,-0.01184,3.2
,,,-0.0118,3.2
,,,-0.01176,3.2
,,,-0.01172,3.2
,,,-0.01168,3.4
,,,-0.01164,3.2
,,,-0.0116,3.2
,,,-0.01156,3.2
,,,-0.01152,3.2
,,,-0.01148,3.2
,,,-0.01144,3.2
,,,-0.0114,3.4
,,,-0.01136,3.2
,,,-0.01132,3.2
,,,-0.01128,3.2
,,,-0.01124,3.4
,,,-0.0112,3.2
,,,-0.01116,3.4
,,,-0.01112,3.2
,,,-0.01108,3.4
,,,-0.01104,3.4
,,,-0.011,3.2
,,,-0.01096,3.4
,,,-0.01092,3.4
,,,-0.01088,3.4
,,,-0.01084,3.2
,,,-0.0108,3.4
,,,-0.01076,3.4
,,,-0.01072,3.4
,,,-0.01068,3.4
,,,-0.01064,3.4
,,,-0.0106,3.4
,,,-0.01056,3.4
,,,-0.01052,3.4
,,,-0.01048,3.4
,,,-0.01044,3.4
,,,-0.0104,3.4
,,,-0.01036,3.4
,,,-0.01032,3.4
,,,-0.01028,3.4
,,,-0.01024,3.4
,,,-0.0102,3.4
,,,-0.01016,3.4
,,,-0.01012,3.6
,,,-0.01008,3.4
,,,-0.01004,3.4
,,,-0.01,3.6
,,,-0.00996,3.6
,,,-0.00992,3.4
,,,-0.00988,3.4
,,,-0.00984,3.6
,,,-0.0098,3.4
,,,-0.00976,3.4
,,,-0.00972,3.6
,,,-0.00968,3.4
,,,-0.00964,3.6
,,,-0.0096,3.6
,,,-0.00956,3.6
,,,-0.00952,3.6
,,,-0.00948,3.6
,,,-0.00944,3.6
,,,-0.0094,3.6
,,,-0.00936,3.6
,,,-0.00932,3.6
,,,-0.00928,3.6
,,,-0.00924,3.6
,,,-0.0092,3.6
,,,-0.00916,3.6
,,,-0.00912,3.6
,,,-0.00908,3.6
,,,-0.00904,3.6
,,,-0.009,3.6
,,,-0.00896,3.6
,,,-0.00892,3.8
,,,-0.00888,3.6
,,,-0.00884,3.6
,,,-0.0088,3.8
,,,-0.00876,3.6
,,,-0.00872,3.8
,,,-0.00868,3.8
,,,-0.00864,3.8
,,,-0.0086,3.6
,,,-0.00856,3.8
,,,-0.00852,3.8
,,,-0.00848,3.8
,,,-0.00844,3.8
,,,-0.0084,3.8
,,,-0.00836,3.8
,,,-0.00832,3.8
,,,-0.00828,3.8
,,,-0.00824,3.8
,,,-0.0082,3.8
,,,-0.00816,3.8
,,,-0.00812,3.8
,,,-0.00808,3.8
,,,-0.00804,3.8
,,,-0.008,3.8
,,,-0.00796,3.8
,,,-0.00792,3.8
,,,-0.00788,3.8
,,,-0.00784,3.8
,,,-0.0078,3.8
,,,-0.00776,3.8
,,,-0.00772,3.8
,,,-0.00768,4
,,,-0.00764,3.8
,,,-0.0076,4
,,,-0.00756,4
,,,-0.00752,3.8
,,,-0.00748,4
,,,-0.00744,4
,,,-0.0074,4
,,,-0.00736,4
,,,-0.00732,3.8
,,,-0.00728,3.8
,,,-0.00724,3.8
,,,-0.0072,4
,,,-0.00716,3.8
,,,-0.00712,4
,,,-0.00708,4
,,,-0.00704,4
,,,-0.007,4
,,,-0.00696,4
,,,-0.00692,4
,,,-0.00688,4
,,,-0.00684,4
,,,-0.0068,4
,,,-0.00676,4
,,,-0.00672,4
,,,-0.00668,4.2
,,,-0.00664,4
,,,-0.0066,4
,,,-0.00656,4
,,,-0.00652,4
,,,-0.00648,4
,,,-0.00644,4
,,,-0.0064,4
,,,-0.00636,4
,,,-0.00632,4
,,,-0.00628,4
,,,-0.00624,4
,,,-0.0062,4.2
,,,-0.00616,4.2
,,,-0.00612,4
,,,-0.00608,4.2
,,,-0.00604,4.2
,,,-0.006,4.2
,,,-0.00596,4.2
,,,-0.00592,4.2
,,,-0.00588,4.2
,,,-0.00584,4.2
,,,-0.0058,4
,,,-0.00576,4.2
,,,-0.00572,4.2
,,,-0.00568,4.2
,,,-0.00564,4.2
,,,-0.0056,4.2
,,,-0.00556,4.2
,,,-0.00552,4.2
,,,-0.00548,4.2
,,,-0.00544,4.2
,,,-0.0054,4.2
,,,-0.00536,4.2
,,,-0.00532,4.2
,,,-0.00528,4.2
,,,-0.00524,4.2
,,,-0.0052,4.4
,,,-0.00516,4.2
,,,-0.00512,4.2
,,,-0.00508,4.4
,,,-0.00504,4.2
,,,-0.005,4.4
,,,-0.00496,4.2
,,,-0.00492,4.4
,,,-0.00488,4.4
,,,-0.00484,4.4
,,,-0.0048,4.4
,,,-0.00476,4.4
,,,-0.00472,4.4
,,,-0.00468,4.4
,,,-0.00464,4.4
,,,-0.0046,4.4
,,,-0.00456,4.4
,,,-0.00452,4.4
,,,-0.00448,4.4
,,,-0.00444,4.4
,,,-0.0044,4.4
,,,-0.00436,4.6
,,,-0.00432,4.4
,,,-0.00428,4.4
,,,-0.00424,4.4
,,,-0.0042,4.4
,,,-0.00416,4.6
,,,-0.00412,4.6
,,,-0.00408,4.6
,,,-0.00404,4.4
,,,-0.004,4.6
,,,-0.00396,4.6
,,,-0.00392,4.6
,,,-0.00388,4.6
,,,-0.00384,4.4
,,,-0.0038,4.6
,,,-0.00376,4.6
,,,-0.00372,4.6
,,,-0.00368,4.4
,,,-0.00364,4.4
,,,-0.0036,4.6
,,,-0.00356,4.6
,,,-0.00352,4.6
,,,-0.00348,4.6
,,,-0.00344,4.6
,,,-0.0034,4.6
,,,-0.00336,4.6
,,,-0.00332,4.6
,,,-0.00328,4.6
,,,-0.00324,4.6
,,,-0.0032,4.6
,,,-0.00316,4.6
,,,-0.00312,4.6
,,,-0.00308,4.6
,,,-0.00304,4.6
,,,-0.003,4.6
,,,-0.00296,4.8
,,,-0.00292,4.6
,,,-0.00288,4.6
,,,-0.00284,4.6
,,,-0.0028,4.6
,,,-0.00276,4.8
,,,-0.00272,4.8
,,,-0.00268,4.6
,,,-0.00264,4.8
,,,-0.0026,4.8
,,,-0.00256,4.8
,,,-0.00252,4.8
,,,-0.00248,4.8
,,,-0.00244,4.8
,,,-0.0024,4.8
,,,-0.00236,4.8
,,,-0.00232,4.8
,,,-0.00228,4.8
,,,-0.00224,4.8
,,,-0.0022,4.8
,,,-0.00216,4.8
,,,-0.00212,4.8
,,,-0.00208,4.8
,,,-0.00204,4.8
,,,-0.002,5
,,,-0.00196,5
,,,-0.00192,4.8
,,,-0.00188,4.8
,,,-0.00184,4.8
,,,-0.0018,4.8
,,,-0.00176,4.8
,,,-0.00172,4.8
,,,-0.00168,4.8
,,,-0.00164,4.8
,,,-0.0016,4.8
,,,-0.00156,5
,,,-0.00152,5
,,,-0.00148,5
,,,-0.00144,5
,,,-0.0014,4.8
,,,-0.00136,5
,,,-0.00132,5
,,,-0.00128,5
,,,-0.00124,5
,,,-0.0012,5
,,,-0.00116,5
,,,-0.00112,5
,,,-0.00108,5
,,,-0.00104,5
,,,-0.001,5
,,,-0.00096,5
,,,-0.00092,5
,,,-0.00088,5
,,,-0.00084,5
,,,-0.0008,5
,,,-0.00076,5.2
,,,-0.00072,5
,,,-0.00068,5.2
,,,-0.00064,5
,,,-0.0006,5.2
,,,-0.00056,5
,,,-0.00052,5
,,,-0.00048,5
,,,-0.00044,5
,,,-0.0004,5
,,,-0.00036,5
,,,-0.00032,5
,,,-0.00028,5
,,,-0.00024,5.2
,,,-0.0002,5
,,,-0.00016,5.2
,,,-0.00012,5.2
,,,-0.00008,5.2
,,,-0.00004,5.2
,,,0,5.2
,,,0.00004,5.2
,,,0.00008,5.2
,,,0.00012,5.2
,,,0.00016,5.2
,,,0.0002,5.2
,,,0.00024,5.2
,,,0.00028,5.4
,,,0.00032,5.2
,,,0.00036,5.2
,,,0.0004,5.2
,,,0.00044,5.4
,,,0.00048,5.2
,,,0.00052,5.2
,,,0.00056,5.2
,,,0.0006,5.2
,,,0.00064,5.2
,,,0.00068,5.4
,,,0.00072,5.4
,,,0.00076,5.2
,,,0.0008,5.4
,,,0.00084,5.4
,,,0.00088,5.2
,,,0.00092,5.4
,,,0.00096,5.4
,,,0.001,5.2
,,,0.00104,5.4
,,,0.00108,5.4
,,,0.00112,5.4
,,,0.00116,5.4
,,,0.0012,5.4
,,,0.00124,5.4
,,,0.00128,5.4
,,,0.00132,5.6
,,,0.00136,5.4
,,,0.0014,5.4
,,,0.00144,5.4
,,,0.00148,5.4
,,,0.00152,5.4
,,,0.00156,5.4
,,,0.0016,5.4
,,,0.00164,5.4
,,,0.00168,5.4
,,,0.00172,5.4
,,,0.00176,5.4
,,,0.0018,5.4
,,,0.00184,5.6
,,,0.00188,5.4
,,,0.00192,5.4
,,,0.00196,5.6
,,,0.002,5.4
,,,0.00204,5.6
,,,0.00208,5.6
,,,0.00212,5.6
,,,0.00216,5.6
,,,0.0022,5.6
,,,0.00224,5.6
,,,0.00228,5.6
,,,0.00232,5.6
,,,0.00236,5.6
,,,0.0024,5.6
,,,0.00244,5.6
,,,0.00248,5.6
,,,0.00252,5.6
,,,0.00256,5.6
,,,0.0026,5.6
,,,0.00264,5.6
,,,0.00268,5.4
,,,0.00272,5.8
,,,0.00276,5.6
,,,0.0028,5.6
,,,0.00284,5.6
,,,0.00288,5.8
,,,0.00292,5.6
,,,0.00296,5.8
,,,0.003,5.8
,,,0.00304,5.8
,,,0.00308,5.6
,,,0.00312,5.8
,,,0.00316,5.8
,,,0.0032,5.6
,,,0.00324,5.8
,,,0.00328,5.8
,,,0.00332,5.8
,,,0.00336,5.8
,,,0.0034,5.8
,,,0.00344,5.8
,,,0.00348,5.8
,,,0.00352,5.8
