FranckHertz/Osciloscopio/1.5/CH2.CSV

,,,t,v
Record Length,2500,,-0.05,0.2
Sample Interval,0.00004,,-0.04996,0.2
Trigger Point,1250,,-0.04992,0
,,,-0.04988,0.2
,,,-0.04984,0.2
,,,-0.0498,0.2
Source,CH2,,-0.04976,0.2
Vertical Units,V,,-0.04972,0.2
Vertical Scale,5,,-0.04968,0.2
Vertical Offset,-10,,-0.04964,0.2
Horizontal Units,s,,-0.0496,0.2
Horizontal Scale,0.01,,-0.04956,0.2
Pt Fmt,Y,,-0.04952,0
Yzero,0,,-0.04948,0.2
Probe Atten,1,,-0.04944,0.2
Model Number,TBS1102,,-0.0494,0.2
Serial Number,C012400,,-0.04936,0.2
Firmware Version,FV:v26.01,,-0.04932,0
,,,-0.04928,0.2
,,,-0.04924,0.2
,,,-0.0492,0.2
,,,-0.04916,0.2
,,,-0.04912,0.2
,,,-0.04908,0
,,,-0.04904,0.2
,,,-0.049,0.2
,,,-0.04896,0.2
,,,-0.04892,0.2
,,,-0.04888,0.2
,,,-0.04884,0.2
,,,-0.0488,0.2
,,,-0.04876,0
,,,-0.04872,0.2
,,,-0.04868,0.2
,,,-0.04864,0.2
,,,-0.0486,0.2
,,,-0.04856,0.2
,,,-0.04852,0.2
,,,-0.04848,0.2
,,,-0.04844,0.2
,,,-0.0484,0.2
,,,-0.04836,0.2
,,,-0.04832,0.2
,,,-0.04828,0.2
,,,-0.04824,0.2
,,,-0.0482,0.2
,,,-0.04816,0.2
,,,-0.04812,0.2
,,,-0.04808,0.2
,,,-0.04804,0.2
,,,-0.048,0.2
,,,-0.04796,0.2
,,,-0.04792,0.2
,,,-0.04788,0.2
,,,-0.04784,0.2
,,,-0.0478,0.2
,,,-0.04776,0.2
,,,-0.04772,0.2
,,,-0.04768,0.2
,,,-0.04764,0.2
,,,-0.0476,0.2
,,,-0.04756,0.2
,,,-0.04752,0.2
,,,-0.04748,0.2
,,,-0.04744,0.2
,,,-0.0474,0.2
,,,-0.04736,0.2
,,,-0.04732,0.2
,,,-0.04728,0.2
,,,-0.04724,0.2
,,,-0.0472,0.2
,,,-0.04716,0.2
,,,-0.04712,0.2
,,,-0.04708,0.2
,,,-0.04704,0.2
,,,-0.047,0.2
,,,-0.04696,0.2
,,,-0.04692,0.2
,,,-0.04688,0.2
,,,-0.04684,0.2
,,,-0.0468,0.2
,,,-0.04676,0.2
,,,-0.04672,0.2
,,,-0.04668,0.2
,,,-0.04664,0.2
,,,-0.0466,0.2
,,,-0.04656,0.2
,,,-0.04652,0.4
,,,-0.04648,0.2
,,,-0.04644,0.2
,,,-0.0464,0.2
,,,-0.04636,0.2
,,,-0.04632,0.4
,,,-0.04628,0.4
,,,-0.04624,0.2
,,,-0.0462,0.4
,,,-0.04616,0.2
,,,-0.04612,0.4
,,,-0.04608,0.4
,,,-0.04604,0.2
,,,-0.046,0.4
,,,-0.04596,0.4
,,,-0.04592,0.4
,,,-0.04588,0.4
,,,-0.04584,0.4
,,,-0.0458,0.4
,,,-0.04576,0.4
,,,-0.04572,0.4
,,,-0.04568,0.4
,,,-0.04564,0.4
,,,-0.0456,0.2
,,,-0.04556,0.4
,,,-0.04552,0.4
,,,-0.04548,0.4
,,,-0.04544,0.4
,,,-0.0454,0.4
,,,-0.04536,0.4
,,,-0.04532,0.4
,,,-0.04528,0.4
,,,-0.04524,0.2
,,,-0.0452,0.4
,,,-0.04516,0.4
,,,-0.04512,0.4
,,,-0.04508,0.4
,,,-0.04504,0.4
,,,-0.045,0.4
,,,-0.04496,0.4
,,,-0.04492,0.4
,,,-0.04488,0.4
,,,-0.04484,0.4
,,,-0.0448,0.4
,,,-0.04476,0.4
,,,-0.04472,0.4
,,,-0.04468,0.4
,,,-0.04464,0.4
,,,-0.0446,0.4
,,,-0.04456,0.4
,,,-0.04452,0.4
,,,-0.04448,0.4
,,,-0.04444,0.4
,,,-0.0444,0.4
,,,-0.04436,0.4
,,,-0.04432,0.4
,,,-0.04428,0.4
,,,-0.04424,0.4
,,,-0.0442,0.4
,,,-0.04416,0.4
,,,-0.04412,0.4
,,,-0.04408,0.4
,,,-0.04404,0.4
,,,-0.044,0.4
,,,-0.04396,0.4
,,,-0.04392,0.4
,,,-0.04388,0.4
,,,-0.04384,0.4
,,,-0.0438,0.4
,,,-0.04376,0.4
,,,-0.04372,0.6
,,,-0.04368,0.4
,,,-0.04364,0.6
,,,-0.0436,0.4
,,,-0.04356,0.4
,,,-0.04352,0.6
,,,-0.04348,0.6
,,,-0.04344,0.6
,,,-0.0434,0.6
,,,-0.04336,0.6
,,,-0.04332,0.6
,,,-0.04328,0.6
,,,-0.04324,0.6
,,,-0.0432,0.8
,,,-0.04316,0.6
,,,-0.04312,0.6
,,,-0.04308,0.8
,,,-0.04304,0.8
,,,-0.043,0.8
,,,-0.04296,0.8
,,,-0.04292,0.8
,,,-0.04288,0.8
,,,-0.04284,0.8
,,,-0.0428,0.8
,,,-0.04276,0.8
,,,-0.04272,0.8
,,,-0.04268,0.8
,,,-0.04264,0.8
,,,-0.0426,0.8
,,,-0.04256,0.8
,,,-0.04252,0.8
,,,-0.04248,0.8
,,,-0.04244,0.8
,,,-0.0424,1
,,,-0.04236,0.8
,,,-0.04232,0.8
,,,-0.04228,1
,,,-0.04224,0.8
,,,-0.0422,0.8
,,,-0.04216,0.8
,,,-0.04212,0.8
,,,-0.04208,0.8
,,,-0.04204,0.8
,,,-0.042,0.8
,,,-0.04196,0.8
,,,-0.04192,0.8
,,,-0.04188,0.8
,,,-0.04184,0.8
,,,-0.0418,0.8
,,,-0.04176,1
,,,-0.04172,1
,,,-0.04168,0.8
,,,-0.04164,0.8
,,,-0.0416,0.8
,,,-0.04156,0.8
,,,-0.04152,0.8
,,,-0.04148,0.8
,,,-0.04144,0.8
,,,-0.0414,0.8
,,,-0.04136,0.8
,,,-0.04132,0.8
,,,-0.04128,0.8
,,,-0.04124,0.8
,,,-0.0412,0.8
,,,-0.04116,1
,,,-0.04112,0.8
,,,-0.04108,1
,,,-0.04104,0.8
,,,-0.041,0.8
,,,-0.04096,0.8
,,,-0.04092,1
,,,-0.04088,1
,,,-0.04084,1
,,,-0.0408,1
,,,-0.04076,1.2
,,,-0.04072,1
,,,-0.04068,1.2
,,,-0.04064,1.2
,,,-0.0406,1.2
,,,-0.04056,1
,,,-0.04052,1.2
,,,-0.04048,1.2
,,,-0.04044,1.2
,,,-0.0404,1.4
,,,-0.04036,1.2
,,,-0.04032,1.2
,,,-0.04028,1.2
,,,-0.04024,1.4
,,,-0.0402,1.6
,,,-0.04016,1.6
,,,-0.04012,1.6
,,,-0.04008,1.6
,,,-0.04004,1.6
,,,-0.04,1.6
,,,-0.03996,1.6
,,,-0.03992,1.8
,,,-0.03988,1.6
,,,-0.03984,1.8
,,,-0.0398,1.8
,,,-0.03976,1.8
,,,-0.03972,1.8
,,,-0.03968,1.8
,,,-0.03964,1.8
,,,-0.0396,1.8
,,,-0.03956,1.8
,,,-0.03952,1.8
,,,-0.03948,1.8
,,,-0.03944,1.8
,,,-0.0394,1.8
,,,-0.03936,1.8
,,,-0.03932,1.8
,,,-0.03928,1.8
,,,-0.03924,1.8
,,,-0.0392,1.8
,,,-0.03916,1.8
,,,-0.03912,1.8
,,,-0.03908,1.8
,,,-0.03904,1.8
,,,-0.039,1.8
,,,-0.03896,1.8
,,,-0.03892,1.8
,,,-0.03888,1.8
,,,-0.03884,1.8
,,,-0.0388,1.8
,,,-0.03876,1.8
,,,-0.03872,1.8
,,,-0.03868,1.8
,,,-0.03864,1.8
,,,-0.0386,1.8
,,,-0.03856,1.8
,,,-0.03852,1.8
,,,-0.03848,1.8
,,,-0.03844,1.8
,,,-0.0384,1.6
,,,-0.03836,1.8
,,,-0.03832,1.8
,,,-0.03828,1.8
,,,-0.03824,1.8
,,,-0.0382,1.8
,,,-0.03816,1.8
,,,-0.03812,2
,,,-0.03808,1.8
,,,-0.03804,1.8
,,,-0.038,1.8
,,,-0.03796,2
,,,-0.03792,2
,,,-0.03788,2
,,,-0.03784,2
,,,-0.0378,2.2
,,,-0.03776,2.2
,,,-0.03772,2.2
,,,-0.03768,2.2
,,,-0.03764,2.2
,,,-0.0376,2.2
,,,-0.03756,2.4
,,,-0.03752,2.4
,,,-0.03748,2.4
,,,-0.03744,2.6
,,,-0.0374,2.6
,,,-0.03736,2.6
,,,-0.03732,2.6
,,,-0.03728,2.6
,,,-0.03724,2.8
,,,-0.0372,2.8
,,,-0.03716,2.8
,,,-0.03712,3
,,,-0.03708,2.8
,,,-0.03704,3
,,,-0.037,3
,,,-0.03696,3
,,,-0.03692,3
,,,-0.03688,3
,,,-0.03684,3.2
,,,-0.0368,3.2
,,,-0.03676,3.2
,,,-0.03672,3.2
,,,-0.03668,3.2
,,,-0.03664,3.2
,,,-0.0366,3.2
,,,-0.03656,3.2
,,,-0.03652,3.2
,,,-0.03648,3.2
,,,-0.03644,3.2
,,,-0.0364,3.2
,,,-0.03636,3.2
,,,-0.03632,3.2
,,,-0.03628,3.2
,,,-0.03624,3.2
,,,-0.0362,3.2
,,,-0.03616,3.2
,,,-0.03612,3.2
,,,-0.03608,3.2
,,,-0.03604,3.2
,,,-0.036,3.2
,,,-0.03596,3.2
,,,-0.03592,3.2
,,,-0.03588,3.2
,,,-0.03584,3.2
,,,-0.0358,3.2
,,,-0.03576,3.2
,,,-0.03572,3.2
,,,-0.03568,3.2
,,,-0.03564,3.2
,,,-0.0356,3.2
,,,-0.03556,3
,,,-0.03552,3.2
,,,-0.03548,3.2
,,,-0.03544,3.2
,,,-0.0354,3.2
,,,-0.03536,3.2
,,,-0.03532,3.2
,,,-0.03528,3.2
,,,-0.03524,3.2
,,,-0.0352,3.2
,,,-0.03516,3.2
,,,-0.03512,3.2
,,,-0.03508,3.2
,,,-0.03504,3.2
,,,-0.035,3.4
,,,-0.03496,3.4
,,,-0.03492,3.4
,,,-0.03488,3.6
,,,-0.03484,3.6
,,,-0.0348,3.6
,,,-0.03476,3.6
,,,-0.03472,3.8
,,,-0.03468,3.8
,,,-0.03464,3.8
,,,-0.0346,4
,,,-0.03456,4
,,,-0.03452,4.2
,,,-0.03448,4.2
,,,-0.03444,4.2
,,,-0.0344,4.4
,,,-0.03436,4.4
,,,-0.03432,4.4
,,,-0.03428,4.4
,,,-0.03424,4.6
,,,-0.0342,4.6
,,,-0.03416,4.6
,,,-0.03412,4.8
,,,-0.03408,4.6
,,,-0.03404,5
,,,-0.034,4.8
,,,-0.03396,5
,,,-0.03392,5
,,,-0.03388,5.2
,,,-0.03384,5
,,,-0.0338,5
,,,-0.03376,5.2
,,,-0.03372,5.2
,,,-0.03368,5.2
,,,-0.03364,5.2
,,,-0.0336,5.2
,,,-0.03356,5.2
,,,-0.03352,5.2
,,,-0.03348,5.2
,,,-0.03344,5.2
,,,-0.0334,5.2
,,,-0.03336,5.2
,,,-0.03332,5.4
,,,-0.03328,5.2
,,,-0.03324,5.2
,,,-0.0332,5.2
,,,-0.03316,5.2
,,,-0.03312,5.2
,,,-0.03308,5.2
,,,-0.03304,5.2
,,,-0.033,5.2
,,,-0.03296,5.2
,,,-0.03292,5.2
,,,-0.03288,5.2
,,,-0.03284,5.2
,,,-0.0328,5
,,,-0.03276,5
,,,-0.03272,5.2
,,,-0.03268,5.2
,,,-0.03264,5
,,,-0.0326,5
,,,-0.03256,5
,,,-0.03252,5
,,,-0.03248,5.2
,,,-0.03244,5.2
,,,-0.0324,5.2
,,,-0.03236,5
,,,-0.03232,5.2
,,,-0.03228,5.2
,,,-0.03224,5.2
,,,-0.0322,5.2
,,,-0.03216,5.2
,,,-0.03212,5.2
,,,-0.03208,5.2
,,,-0.03204,5.2
,,,-0.032,5.4
,,,-0.03196,5.4
,,,-0.03192,5.4
,,,-0.03188,5.6
,,,-0.03184,5.6
,,,-0.0318,5.8
,,,-0.03176,5.8
,,,-0.03172,5.8
,,,-0.03168,6
,,,-0.03164,6
,,,-0.0316,6
,,,-0.03156,6.2
,,,-0.03152,6.2
,,,-0.03148,6.4
,,,-0.03144,6.4
,,,-0.0314,6.4
,,,-0.03136,6.6
,,,-0.03132,6.6
,,,-0.03128,6.8
,,,-0.03124,6.8
,,,-0.0312,7
,,,-0.03116,7
,,,-0.03112,7.2
,,,-0.03108,7.2
,,,-0.03104,7.2
,,,-0.031,7.4
,,,-0.03096,7.4
,,,-0.03092,7.4
,,,-0.03088,7.6
,,,-0.03084,7.6
,,,-0.0308,7.6
,,,-0.03076,7.8
,,,-0.03072,7.6
,,,-0.03068,7.8
,,,-0.03064,7.8
,,,-0.0306,8
,,,-0.03056,7.8
,,,-0.03052,8
,,,-0.03048,8
,,,-0.03044,8
,,,-0.0304,8
,,,-0.03036,8
,,,-0.03032,8
,,,-0.03028,8
,,,-0.03024,8
,,,-0.0302,8
,,,-0.03016,8
,,,-0.03012,8
,,,-0.03008,8
,,,-0.03004,8
,,,-0.03,7.8
,,,-0.02996,7.8
,,,-0.02992,7.8
,,,-0.02988,7.8
,,,-0.02984,7.8
,,,-0.0298,7.8
,,,-0.02976,7.8
,,,-0.02972,7.8
,,,-0.02968,7.8
,,,-0.02964,7.8
,,,-0.0296,7.8
,,,-0.02956,7.6
,,,-0.02952,7.8
,,,-0.02948,7.8
,,,-0.02944,7.8
,,,-0.0294,7.8
,,,-0.02936,7.8
,,,-0.02932,7.8
,,,-0.02928,8
,,,-0.02924,8
,,,-0.0292,8
,,,-0.02916,8
,,,-0.02912,8
,,,-0.02908,8.2
,,,-0.02904,8.2
,,,-0.029,8.2
,,,-0.02896,8.4
,,,-0.02892,8.4
,,,-0.02888,8.6
,,,-0.02884,8.6
,,,-0.0288,8.6
,,,-0.02876,8.6
,,,-0.02872,9
,,,-0.02868,9
,,,-0.02864,9.2
,,,-0.0286,9.4
,,,-0.02856,9.4
,,,-0.02852,9.4
,,,-0.02848,9.8
,,,-0.02844,9.8
,,,-0.0284,10
,,,-0.02836,10
,,,-0.02832,10.2
,,,-0.02828,10
,,,-0.02824,10.2
,,,-0.0282,10.2
,,,-0.02816,10.2
,,,-0.02812,10.2
,,,-0.02808,10.4
,,,-0.02804,10.4
,,,-0.028,10.4
,,,-0.02796,10.4
,,,-0.02792,10.6
,,,-0.02788,10.4
,,,-0.02784,10.6
,,,-0.0278,10.6
,,,-0.02776,10.6
,,,-0.02772,10.6
,,,-0.02768,10.6
,,,-0.02764,10.6
,,,-0.0276,10.6
,,,-0.02756,10.6
,,,-0.02752,10.6
,,,-0.02748,10.8
,,,-0.02744,10.8
,,,-0.0274,10.6
,,,-0.02736,10.8
,,,-0.02732,10.8
,,,-0.02728,10.8
,,,-0.02724,10.8
,,,-0.0272,10.8
,,,-0.02716,10.8
,,,-0.02712,10.8
,,,-0.02708,10.8
,,,-0.02704,10.8
,,,-0.027,10.8
,,,-0.02696,10.8
,,,-0.02692,10.8
,,,-0.02688,10.8
,,,-0.02684,10.8
,,,-0.0268,10.8
,,,-0.02676,10.8
,,,-0.02672,10.8
,,,-0.02668,11
,,,-0.02664,10.8
,,,-0.0266,11
,,,-0.02656,11
,,,-0.02652,10.8
,,,-0.02648,11
,,,-0.02644,11
,,,-0.0264,10.8
,,,-0.02636,11
,,,-0.02632,11
,,,-0.02628,11
,,,-0.02624,11
,,,-0.0262,11
,,,-0.02616,11
,,,-0.02612,11
,,,-0.02608,11
,,,-0.02604,11
,,,-0.026,11
,,,-0.02596,11.2
,,,-0.02592,11.2
,,,-0.02588,11
,,,-0.02584,11
,,,-0.0258,11
,,,-0.02576,11.2
,,,-0.02572,11.2
,,,-0.02568,11
,,,-0.02564,11
,,,-0.0256,11.2
,,,-0.02556,11.2
,,,-0.02552,11
,,,-0.02548,11.2
,,,-0.02544,11.2
,,,-0.0254,11
,,,-0.02536,11.2
,,,-0.02532,11.2
,,,-0.02528,11.2
,,,-0.02524,11.2
,,,-0.0252,11.2
,,,-0.02516,11.2
,,,-0.02512,11.2
,,,-0.02508,11.2
,,,-0.02504,11
,,,-0.025,11.2
,,,-0.02496,11.2
,,,-0.02492,11.2
,,,-0.02488,11.2
,,,-0.02484,11.2
,,,-0.0248,11.2
,,,-0.02476,11.2
,,,-0.02472,11
,,,-0.02468,11.2
,,,-0.02464,11.2
,,,-0.0246,11.2
,,,-0.02456,11.2
,,,-0.02452,11.2
,,,-0.02448,11.2
,,,-0.02444,11.2
,,,-0.0244,11.2
,,,-0.02436,11.2
,,,-0.02432,11.2
,,,-0.02428,11.2
,,,-0.02424,11.2
,,,-0.0242,11.2
,,,-0.02416,11.2
,,,-0.02412,11.2
,,,-0.02408,11.2
,,,-0.02404,11.2
,,,-0.024,11.2
,,,-0.02396,11.2
,,,-0.02392,11.2
,,,-0.02388,11.2
,,,-0.02384,11.2
,,,-0.0238,11.2
,,,-0.02376,11.2
,,,-0.02372,11.2
,,,-0.02368,11.2
,,,-0.02364,11.2
,,,-0.0236,11.2
,,,-0.02356,11.2
,,,-0.02352,11.2
,,,-0.02348,11.2
,,,-0.02344,11
,,,-0.0234,11
,,,-0.02336,11
,,,-0.02332,11
,,,-0.02328,11
,,,-0.02324,10.8
,,,-0.0232,10.8
,,,-0.02316,10.6
,,,-0.02312,10.6
,,,-0.02308,10.4
,,,-0.02304,10.4
,,,-0.023,10.2
,,,-0.02296,10
,,,-0.02292,9.8
,,,-0.02288,9.8
,,,-0.02284,9.4
,,,-0.0228,9.4
,,,-0.02276,9.2
,,,-0.02272,9
,,,-0.02268,8.8
,,,-0.02264,8.6
,,,-0.0226,8.6
,,,-0.02256,8.4
,,,-0.02252,8.2
,,,-0.02248,8
,,,-0.02244,7.8
,,,-0.0224,7.6
,,,-0.02236,7.4
,,,-0.02232,7.2
,,,-0.02228,7.2
,,,-0.02224,7
,,,-0.0222,6.8
,,,-0.02216,6.6
,,,-0.02212,6.4
,,,-0.02208,6.4
,,,-0.02204,6.2
,,,-0.022,6
,,,-0.02196,5.8
,,,-0.02192,5.8
,,,-0.02188,5.6
,,,-0.02184,5.4
,,,-0.0218,5.2
,,,-0.02176,5.2
,,,-0.02172,5
,,,-0.02168,4.8
,,,-0.02164,4.8
,,,-0.0216,4.6
,,,-0.02156,4.4
,,,-0.02152,4.4
,,,-0.02148,4.4
,,,-0.02144,4.2
,,,-0.0214,4
,,,-0.02136,4
,,,-0.02132,3.8
,,,-0.02128,3.6
,,,-0.02124,3.6
,,,-0.0212,3.4
,,,-0.02116,3.4
,,,-0.02112,3.2
,,,-0.02108,3.2
,,,-0.02104,3.2
,,,-0.021,3
,,,-0.02096,2.8
,,,-0.02092,2.8
,,,-0.02088,2.8
,,,-0.02084,2.8
,,,-0.0208,2.4
,,,-0.02076,2.6
,,,-0.02072,2.4
,,,-0.02068,2.4
,,,-0.02064,2.4
,,,-0.0206,2.2
,,,-0.02056,2.2
,,,-0.02052,2.2
,,,-0.02048,2
,,,-0.02044,2
,,,-0.0204,2
,,,-0.02036,1.8
,,,-0.02032,1.8
,,,-0.02028,1.6
,,,-0.02024,1.6
,,,-0.0202,1.6
,,,-0.02016,1.6
,,,-0.02012,1.6
,,,-0.02008,1.4
,,,-0.02004,1.4
,,,-0.02,1.4
,,,-0.01996,1.4
,,,-0.01992,1.2
,,,-0.01988,1.2
,,,-0.01984,1.2
,,,-0.0198,1.2
,,,-0.01976,1.2
,,,-0.01972,1
,,,-0.01968,1
,,,-0.01964,1
,,,-0.0196,1
,,,-0.01956,0.8
,,,-0.01952,0.8
,,,-0.01948,0.8
,,,-0.01944,0.8
,,,-0.0194,0.8
,,,-0.01936,0.8
,,,-0.01932,0.8
,,,-0.01928,0.8
,,,-0.01924,0.8
,,,-0.0192,0.6
,,,-0.01916,0.6
,,,-0.01912,0.6
,,,-0.01908,0.6
,,,-0.01904,0.6
,,,-0.019,0.6
,,,-0.01896,0.6
,,,-0.01892,0.6
,,,-0.01888,0.6
,,,-0.01884,0.4
,,,-0.0188,0.6
,,,-0.01876,0.4
,,,-0.01872,0.6
,,,-0.01868,0.4
,,,-0.01864,0.4
,,,-0.0186,0.4
,,,-0.01856,0.4
,,,-0.01852,0.4
,,,-0.01848,0.4
,,,-0.01844,0.4
,,,-0.0184,0.4
,,,-0.01836,0.4
,,,-0.01832,0.4
,,,-0.01828,0.4
,,,-0.01824,0.4
,,,-0.0182,0.4
,,,-0.01816,0.2
,,,-0.01812,0.2
,,,-0.01808,0.4
,,,-0.01804,0.2
,,,-0.018,0.2
,,,-0.01796,0.2
,,,-0.01792,0.4
,,,-0.01788,0.2
,,,-0.01784,0.2
,,,-0.0178,0.2
,,,-0.01776,0.2
,,,-0.01772,0.2
,,,-0.01768,0.2
,,,-0.01764,0.2
,,,-0.0176,0.2
,,,-0.01756,0.2
,,,-0.01752,0.2
,,,-0.01748,0.2
,,,-0.01744,0.2
,,,-0.0174,0.2
,,,-0.01736,0.2
,,,-0.01732,0.2
,,,-0.01728,0.2
,,,-0.01724,0.2
,,,-0.0172,0.2
,,,-0.01716,0.2
,,,-0.01712,0.2
,,,-0.01708,0.2
,,,-0.01704,0.2
,,,-0.017,0.2
,,,-0.01696,0.2
,,,-0.01692,0.2
,,,-0.01688,0.2
,,,-0.01684,0.2
,,,-0.0168,0.2
,,,-0.01676,0.2
,,,-0.01672,0.2
,,,-0.01668,0.2
,,,-0.01664,0.2
,,,-0.0166,0.2
,,,-0.01656,0.2
,,,-0.01652,0.2
,,,-0.01648,0.2
,,,-0.01644,0.2
,,,-0.0164,0.2
,,,-0.01636,0.2
,,,-0.01632,0.2
,,,-0.01628,0.2
,,,-0.01624,0.2
,,,-0.0162,0.2
,,,-0.01616,0.4
,,,-0.01612,0.2
,,,-0.01608,0.2
,,,-0.01604,0.2
,,,-0.016,0.2
,,,-0.01596,0.2
,,,-0.01592,0.2
,,,-0.01588,0.2
,,,-0.01584,0.2
,,,-0.0158,0.2
,,,-0.01576,0.2
,,,-0.01572,0.2
,,,-0.01568,0.2
,,,-0.01564,0.2
,,,-0.0156,0.2
,,,-0.01556,0.2
,,,-0.01552,0.2
,,,-0.01548,0.2
,,,-0.01544,0.2
,,,-0.0154,0.2
,,,-0.01536,0.2
,,,-0.01532,0.2
,,,-0.01528,0.2
,,,-0.01524,0.2
,,,-0.0152,0.2
,,,-0.01516,0.2
,,,-0.01512,0.2
,,,-0.01508,0.2
,,,-0.01504,0.2
,,,-0.015,0.2
,,,-0.01496,0.2
,,,-0.01492,0.2
,,,-0.01488,0.2
,,,-0.01484,0.2
,,,-0.0148,0.2
,,,-0.01476,0.2
,,,-0.01472,0
,,,-0.01468,0.2
,,,-0.01464,0.2
,,,-0.0146,0.2
,,,-0.01456,0.2
,,,-0.01452,0.2
,,,-0.01448,0
,,,-0.01444,0.2
,,,-0.0144,0.2
,,,-0.01436,0.2
,,,-0.01432,0.2
,,,-0.01428,0.2
,,,-0.01424,0.2
,,,-0.0142,0
,,,-0.01416,0.2
,,,-0.01412,0
,,,-0.01408,0
,,,-0.01404,0.2
,,,-0.014,0.2
,,,-0.01396,0.2
,,,-0.01392,0.2
,,,-0.01388,0.2
,,,-0.01384,0.2
,,,-0.0138,0.2
,,,-0.01376,0.2
,,,-0.01372,0
,,,-0.01368,0.2
,,,-0.01364,0
,,,-0.0136,0
,,,-0.01356,0
,,,-0.01352,0
,,,-0.01348,0
,,,-0.01344,0.2
,,,-0.0134,0.2
,,,-0.01336,0.2
,,,-0.01332,0
,,,-0.01328,0.2
,,,-0.01324,0
,,,-0.0132,0
,,,-0.01316,0
,,,-0.01312,0.2
,,,-0.01308,0
,,,-0.01304,0.2
,,,-0.013,0.2
,,,-0.01296,0
,,,-0.01292,0
,,,-0.01288,0
,,,-0.01284,0.2
,,,-0.0128,0.2
,,,-0.01276,0.2
,,,-0.01272,0.2
,,,-0.01268,0.2
,,,-0.01264,0.2
,,,-0.0126,0
,,,-0.01256,0.2
,,,-0.01252,0
,,,-0.01248,0.2
,,,-0.01244,0
,,,-0.0124,0.2
,,,-0.01236,0.2
,,,-0.01232,0.2
,,,-0.01228,0
,,,-0.01224,0.2
,,,-0.0122,0.2
,,,-0.01216,0.2
,,,-0.01212,0.2
,,,-0.01208,0
,,,-0.01204,0.2
,,,-0.012,0.2
,,,-0.01196,0
,,,-0.01192,0.2
,,,-0.01188,0.2
,,,-0.01184,0
,,,-0.0118,0
,,,-0.01176,0.2
,,,-0.01172,0.2
,,,-0.01168,0.2
,,,-0.01164,0.2
,,,-0.0116,0
,,,-0.01156,0.2
,,,-0.01152,0.2
,,,-0.01148,0
,,,-0.01144,0
,,,-0.0114,0.2
,,,-0.01136,0.2
,,,-0.01132,0
,,,-0.01128,0.2
,,,-0.01124,0
,,,-0.0112,0.2
,,,-0.01116,0
,,,-0.01112,0.2
,,,-0.01108,0
,,,-0.01104,0.2
,,,-0.011,0.2
,,,-0.01096,0.2
,,,-0.01092,0.2
,,,-0.01088,0
,,,-0.01084,0.2
,,,-0.0108,0
,,,-0.01076,0.2
,,,-0.01072,0.2
,,,-0.01068,0.2
,,,-0.01064,0.2
,,,-0.0106,0.2
,,,-0.01056,0.2
,,,-0.01052,0.2
,,,-0.01048,0
,,,-0.01044,0
,,,-0.0104,0.2
,,,-0.01036,0.2
,,,-0.01032,0.2
,,,-0.01028,0.2
,,,-0.01024,0.2
,,,-0.0102,0.2
,,,-0.01016,0.2
,,,-0.01012,0.2
,,,-0.01008,0.2
,,,-0.01004,0.2
,,,-0.01,0.2
,,,-0.00996,0.2
,,,-0.00992,0.2
,,,-0.00988,0.2
,,,-0.00984,0.2
,,,-0.0098,0.2
,,,-0.00976,0.2
,,,-0.00972,0.2
,,,-0.00968,0.2
,,,-0.00964,0.2
,,,-0.0096,0.2
,,,-0.00956,0.4
,,,-0.00952,0.2
,,,-0.00948,0.2
,,,-0.00944,0.2
,,,-0.0094,0.2
,,,-0.00936,0.2
,,,-0.00932,0.2
,,,-0.00928,0.2
,,,-0.00924,0.2
,,,-0.0092,0.2
,,,-0.00916,0.2
,,,-0.00912,0.2
,,,-0.00908,0.2
,,,-0.00904,0.2
,,,-0.009,0.4
,,,-0.00896,0.2
,,,-0.00892,0.4
,,,-0.00888,0.2
,,,-0.00884,0.2
,,,-0.0088,0.2
,,,-0.00876,0.2
,,,-0.00872,0.2
,,,-0.00868,0.2
,,,-0.00864,0.2
,,,-0.0086,0.2
,,,-0.00856,0.2
,,,-0.00852,0.2
,,,-0.00848,0.2
,,,-0.00844,0.2
,,,-0.0084,0.4
,,,-0.00836,0.2
,,,-0.00832,0.2
,,,-0.00828,0.2
,,,-0.00824,0.2
,,,-0.0082,0.2
,,,-0.00816,0.4
,,,-0.00812,0.2
,,,-0.00808,0.2
,,,-0.00804,0.2
,,,-0.008,0.4
,,,-0.00796,0.4
,,,-0.00792,0.2
,,,-0.00788,0.2
,,,-0.00784,0.4
,,,-0.0078,0.2
,,,-0.00776,0.4
,,,-0.00772,0.4
,,,-0.00768,0.4
,,,-0.00764,0.4
,,,-0.0076,0.4
,,,-0.00756,0.4
,,,-0.00752,0.4
,,,-0.00748,0.4
,,,-0.00744,0.6
,,,-0.0074,0.4
,,,-0.00736,0.6
,,,-0.00732,0.6
,,,-0.00728,0.6
,,,-0.00724,0.6
,,,-0.0072,0.6
,,,-0.00716,0.6
,,,-0.00712,0.6
,,,-0.00708,0.6
,,,-0.00704,0.6
,,,-0.007,0.8
,,,-0.00696,0.6
,,,-0.00692,0.8
,,,-0.00688,0.6
,,,-0.00684,0.8
,,,-0.0068,0.6
,,,-0.00676,0.8
,,,-0.00672,0.8
,,,-0.00668,0.8
,,,-0.00664,0.6
,,,-0.0066,0.8
,,,-0.00656,0.8
,,,-0.00652,0.8
,,,-0.00648,0.8
,,,-0.00644,0.8
,,,-0.0064,0.8
,,,-0.00636,0.8
,,,-0.00632,0.8
,,,-0.00628,0.8
,,,-0.00624,0.8
,,,-0.0062,0.8
,,,-0.00616,0.8
,,,-0.00612,0.8
,,,-0.00608,0.8
,,,-0.00604,0.8
,,,-0.006,0.8
,,,-0.00596,0.8
,,,-0.00592,0.8
,,,-0.00588,0.8
,,,-0.00584,0.8
,,,-0.0058,0.8
,,,-0.00576,0.8
,,,-0.00572,0.8
,,,-0.00568,0.8
,,,-0.00564,0.8
,,,-0.0056,0.8
,,,-0.00556,0.8
,,,-0.00552,0.8
,,,-0.00548,0.8
,,,-0.00544,0.8
,,,-0.0054,0.8
,,,-0.00536,0.8
,,,-0.00532,1
,,,-0.00528,0.8
,,,-0.00524,0.8
,,,-0.0052,0.8
,,,-0.00516,1
,,,-0.00512,0.8
,,,-0.00508,0.8
,,,-0.00504,1
,,,-0.005,0.8
,,,-0.00496,1
,,,-0.00492,1
,,,-0.00488,1.2
,,,-0.00484,1
,,,-0.0048,1
,,,-0.00476,1.2
,,,-0.00472,1.2
,,,-0.00468,1.2
,,,-0.00464,1.2
,,,-0.0046,1.2
,,,-0.00456,1.2
,,,-0.00452,1.4
,,,-0.00448,1.2
,,,-0.00444,1.4
,,,-0.0044,1.4
,,,-0.00436,1.6
,,,-0.00432,1.6
,,,-0.00428,1.6
,,,-0.00424,1.6
,,,-0.0042,1.6
,,,-0.00416,1.6
,,,-0.00412,1.6
,,,-0.00408,1.8
,,,-0.00404,1.8
,,,-0.004,1.8
,,,-0.00396,1.6
,,,-0.00392,1.8
,,,-0.00388,1.8
,,,-0.00384,1.8
,,,-0.0038,2
,,,-0.00376,1.8
,,,-0.00372,1.8
,,,-0.00368,1.8
,,,-0.00364,2
,,,-0.0036,2
,,,-0.00356,2
,,,-0.00352,2
,,,-0.00348,2
,,,-0.00344,2
,,,-0.0034,2
,,,-0.00336,2
,,,-0.00332,1.8
,,,-0.00328,2
,,,-0.00324,2
,,,-0.0032,2
,,,-0.00316,1.8
,,,-0.00312,2
,,,-0.00308,2
,,,-0.00304,2
,,,-0.003,1.8
,,,-0.00296,2
,,,-0.00292,1.8
,,,-0.00288,2
,,,-0.00284,2
,,,-0.0028,2
,,,-0.00276,1.8
,,,-0.00272,1.8
,,,-0.00268,1.8
,,,-0.00264,2
,,,-0.0026,2
,,,-0.00256,1.8
,,,-0.00252,1.8
,,,-0.00248,1.8
,,,-0.00244,2
,,,-0.0024,2
,,,-0.00236,2
,,,-0.00232,2
,,,-0.00228,2
,,,-0.00224,2
,,,-0.0022,2
,,,-0.00216,2
,,,-0.00212,2
,,,-0.00208,2
,,,-0.00204,2.2
,,,-0.002,2.2
,,,-0.00196,2.2
,,,-0.00192,2.2
,,,-0.00188,2.2
,,,-0.00184,2.4
,,,-0.0018,2.4
,,,-0.00176,2.4
,,,-0.00172,2.4
,,,-0.00168,2.6
,,,-0.00164,2.6
,,,-0.0016,2.6
,,,-0.00156,2.6
,,,-0.00152,2.6
,,,-0.00148,2.8
,,,-0.00144,2.8
,,,-0.0014,2.8
,,,-0.00136,2.8
,,,-0.00132,3
,,,-0.00128,3
,,,-0.00124,3
,,,-0.0012,3
,,,-0.00116,3
,,,-0.00112,3
,,,-0.00108,3.2
,,,-0.00104,3.2
,,,-0.001,3.2
,,,-0.00096,3.2
,,,-0.00092,3.2
,,,-0.00088,3.2
,,,-0.00084,3.4
,,,-0.0008,3.4
,,,-0.00076,3.4
,,,-0.00072,3.2
,,,-0.00068,3.4
,,,-0.00064,3.4
,,,-0.0006,3.4
,,,-0.00056,3.4
,,,-0.00052,3.4
,,,-0.00048,3.4
,,,-0.00044,3.6
,,,-0.0004,3.4
,,,-0.00036,3.4
,,,-0.00032,3.4
,,,-0.00028,3.4
,,,-0.00024,3.4
,,,-0.0002,3.4
,,,-0.00016,3.4
,,,-0.00012,3.2
,,,-0.00008,3.4
,,,-0.00004,3.2
,,,0,3.2
,,,0.00004,3.2
,,,0.00008,3.2
,,,0.00012,3.2
,,,0.00016,3.2
,,,0.0002,3.2
,,,0.00024,3.4
,,,0.00028,3.2
,,,0.00032,3.2
,,,0.00036,3.2
,,,0.0004,3.2
,,,0.00044,3.2
,,,0.00048,3.2
,,,0.00052,3.2
,,,0.00056,3.2
,,,0.0006,3.2
,,,0.00064,3.2
,,,0.00068,3.4
,,,0.00072,3.2
,,,0.00076,3.4
,,,0.0008,3.6
,,,0.00084,3.4
